<?xml version="1.0" encoding="UTF-8" standalone="no"?>
<!DOCTYPE svg PUBLIC "-//W3C//DTD SVG 1.0//EN" "http://www.w3.org/TR/2001/REC-SVG-20010904/DTD/svg10.dtd">
<!-- Generated by Microsoft Visio 11.0, SVG Export, v1.0 Architectures.svg Page-1 -->
<svg xmlns="http://www.w3.org/2000/svg" xmlns:xlink="http://www.w3.org/1999/xlink" xmlns:ev="http://www.w3.org/2001/xml-events"
		xmlns:v="http://schemas.microsoft.com/visio/2003/SVGExtensions/" width="5.34191in" height="2.70411in"
		viewBox="0 0 384.617 194.696" xml:space="preserve" color-interpolation-filters="sRGB" class="st14">
	<v:documentProperties v:langID="1033" v:metric="true" v:viewMarkup="false"/>

	<style type="text/css">
	<![CDATA[
		.st1 {visibility:visible}
		.st2 {fill:#cdcdcd;fill-opacity:0.5;stroke:#cdcdcd;stroke-linecap:round;stroke-linejoin:round;stroke-opacity:0.5;stroke-width:0.25}
		.st3 {fill:url(#grad30-6);stroke:#404040;stroke-linecap:round;stroke-linejoin:round;stroke-width:0.25}
		.st4 {stroke:#cdcdcd;stroke-dasharray:3.75,2.25;stroke-linecap:round;stroke-linejoin:round;stroke-opacity:0.5;stroke-width:0.25}
		.st5 {stroke:#404040;stroke-dasharray:3.75,2.25;stroke-linecap:round;stroke-linejoin:round;stroke-width:0.25}
		.st6 {fill:#000000;font-family:Calibri;font-size:0.666664em}
		.st7 {font-size:1em}
		.st8 {fill:none;stroke:none;stroke-linecap:round;stroke-linejoin:round;stroke-width:0.25}
		.st9 {fill:#000000;font-family:Calibri;font-size:0.833336em}
		.st10 {fill:url(#grad30-6);stroke:#7f7f7f;stroke-linecap:round;stroke-linejoin:round;stroke-width:0.25}
		.st11 {fill:#7f7f7f;font-family:Calibri;font-size:0.666664em}
		.st12 {fill:#000000;font-family:Calibri;font-size:0.833336em;font-weight:bold}
		.st13 {fill:url(#grad30-96);stroke:#404040;stroke-linecap:round;stroke-linejoin:round;stroke-width:0.25}
		.st14 {fill:none;fill-rule:evenodd;font-size:12px;overflow:visible;stroke-linecap:square;stroke-miterlimit:3}
	]]>
	</style>

	<defs id="Patterns_And_Gradients">
		<linearGradient id="grad30-6" v:fillPattern="30" v:foreground="#f0f0f0" v:background="#ffffff" x1="0" y1="1" x2="0" y2="0">
			<stop offset="0" style="stop-color:#f0f0f0;stop-opacity:1"/>
			<stop offset="1" style="stop-color:#ffffff;stop-opacity:1"/>
		</linearGradient>
		<linearGradient id="grad30-96" v:fillPattern="30" v:foreground="#c9c9c9" v:background="#d8d8d8" x1="0" y1="1" x2="0" y2="0">
			<stop offset="0" style="stop-color:#c9c9c9;stop-opacity:1"/>
			<stop offset="1" style="stop-color:#d8d8d8;stop-opacity:1"/>
		</linearGradient>
	</defs>
	<g v:mID="0" v:index="1" v:groupContext="foregroundPage">
		<title>Page-1</title>
		<v:pageProperties v:drawingScale="0.0393701" v:pageScale="0.0393701" v:drawingUnits="24" v:shadowOffsetX="8.50394"
				v:shadowOffsetY="-8.50394"/>
		<g id="shape27-1" v:mID="27" v:groupContext="shape" transform="translate(162.8,-18.6979)">
			<title>Sheet.27</title>
			<v:userDefs>
				<v:ud v:nameU="msvThemeColors" v:val="VT0(36):26"/>
				<v:ud v:nameU="msvThemeEffects" v:val="VT0(16):26"/>
			</v:userDefs>
			<g id="shadow27-2" v:groupContext="shadow" v:shadowOffsetX="1.44" v:shadowOffsetY="-1.44" v:shadowType="1"
					transform="matrix(1,0,0,1,1.44,1.44)" class="st1">
				<path d="M16.47 179.18 C0.17 179.99 -3.92 156.89 3.71 148 C11.03 139.49 29.08 144 36.31 150.83 C51.2 138.84 76 133.47
							 87.34 150.83 C104.67 142.43 115.45 153.68 115.68 165.57 C115.97 180.4 99.87 196.24 81.67 179.18 C80.45
							 182.23 78.17 182.03 76 182.01 C48.2 181.85 37.87 212.9 16.47 179.18 Z" class="st2"/>
			</g>
			<path d="M16.47 179.18 C0.17 179.99 -3.92 156.89 3.71 148 C11.03 139.49 29.08 144 36.31 150.83 C51.2 138.84 76 133.47
						 87.34 150.83 C104.67 142.43 115.45 153.68 115.68 165.57 C115.97 180.4 99.87 196.24 81.67 179.18 C80.45 182.23
						 78.17 182.03 76 182.01 C48.2 181.85 37.87 212.9 16.47 179.18 Z" class="st3"/>
		</g>
		<g id="shape4-7" v:mID="4" v:groupContext="shape" transform="translate(8.75394,-81.0601)">
			<title>Sheet.4</title>
			<v:userDefs>
				<v:ud v:nameU="msvThemeColors" v:val="VT0(36):26"/>
				<v:ud v:nameU="msvThemeEffects" v:val="VT0(16):26"/>
			</v:userDefs>
			<g id="shadow4-8" v:groupContext="shadow" v:shadowOffsetX="1.44" v:shadowOffsetY="-1.44" v:shadowType="1"
					transform="matrix(1,0,0,1,1.44,1.44)" class="st1">
				<path d="M0 194.7 L374.17 194.7" class="st4"/>
			</g>
			<path d="M0 194.7 L374.17 194.7" class="st5"/>
		</g>
		<g id="shape1-14" v:mID="1" v:groupContext="shape" transform="translate(44.187,-132.084)">
			<title>Rectangle</title>
			<desc>User Interface (“View“)</desc>
			<v:userDefs>
				<v:ud v:nameU="visVersion" v:val="VT0(14):26"/>
				<v:ud v:nameU="msvThemeColors" v:val="VT0(36):26"/>
				<v:ud v:nameU="msvThemeEffects" v:val="VT0(16):26"/>
			</v:userDefs>
			<v:textBlock v:margins="rect(4,4,4,4)" v:tabSpace="42.5197"/>
			<v:textRect cx="46.7717" cy="183.357" width="93.55" height="22.6772"/>
			<g id="shadow1-15" v:groupContext="shadow" v:shadowOffsetX="1.44" v:shadowOffsetY="-1.44" v:shadowType="1"
					transform="matrix(1,0,0,1,1.44,1.44)" class="st1">
				<rect x="0" y="172.019" width="93.5433" height="22.6772" class="st2"/>
			</g>
			<rect x="0" y="172.019" width="93.5433" height="22.6772" class="st3"/>
			<text x="8.99" y="185.76" class="st6" v:langID="1033"><v:paragraph v:horizAlign="1"/><v:tabList/>User <tspan
						class="st7" v:langID="1031">I</tspan>nterface (<tspan class="st7" v:langID="1031">“</tspan><tspan
						class="st7" v:langID="1031">V</tspan>iew“)</text>		</g>
		<g id="shape2-23" v:mID="2" v:groupContext="shape" transform="translate(44.187,-103.737)">
			<title>Rectangle.2</title>
			<desc>Model Classes</desc>
			<v:userDefs>
				<v:ud v:nameU="visVersion" v:val="VT0(14):26"/>
				<v:ud v:nameU="msvThemeColors" v:val="VT0(36):26"/>
				<v:ud v:nameU="msvThemeEffects" v:val="VT0(16):26"/>
			</v:userDefs>
			<v:textBlock v:margins="rect(4,4,4,4)" v:tabSpace="42.5197"/>
			<v:textRect cx="22.6772" cy="183.357" width="45.36" height="22.6772"/>
			<g id="shadow2-24" v:groupContext="shadow" v:shadowOffsetX="1.44" v:shadowOffsetY="-1.44" v:shadowType="1"
					transform="matrix(1,0,0,1,1.44,1.44)" class="st1">
				<rect x="0" y="172.019" width="45.3543" height="22.6772" class="st2"/>
			</g>
			<rect x="0" y="172.019" width="45.3543" height="22.6772" class="st3"/>
			<text x="12.14" y="180.96" class="st6" v:langID="1031"><v:paragraph v:horizAlign="1"/><v:tabList/>Model <tspan
						x="11.03" dy="1.2em" class="st7">Classes</tspan></text>		</g>
		<g id="shape3-30" v:mID="3" v:groupContext="shape" transform="translate(95.2106,-103.737)">
			<title>Rectangle.3</title>
			<desc>Storage Manager</desc>
			<v:userDefs>
				<v:ud v:nameU="visVersion" v:val="VT0(14):26"/>
				<v:ud v:nameU="msvThemeColors" v:val="VT0(36):26"/>
				<v:ud v:nameU="msvThemeEffects" v:val="VT0(16):26"/>
			</v:userDefs>
			<v:textBlock v:margins="rect(4,4,4,4)" v:tabSpace="42.5197"/>
			<v:textRect cx="21.2598" cy="183.357" width="42.52" height="22.6772"/>
			<g id="shadow3-31" v:groupContext="shadow" v:shadowOffsetX="1.44" v:shadowOffsetY="-1.44" v:shadowType="1"
					transform="matrix(1,0,0,1,1.44,1.44)" class="st1">
				<rect x="0" y="172.019" width="42.5197" height="22.6772" class="st2"/>
			</g>
			<rect x="0" y="172.019" width="42.5197" height="22.6772" class="st3"/>
			<text x="8.79" y="180.96" class="st6" v:langID="1031"><v:paragraph v:horizAlign="1"/><v:tabList/>Storage <tspan
						x="6.64" dy="1.2em" class="st7">Manager</tspan></text>		</g>
		<g id="shape5-37" v:mID="5" v:groupContext="shape" transform="translate(5.91929,-109.407)">
			<title>Sheet.5</title>
			<desc>Front-End</desc>
			<v:userDefs>
				<v:ud v:nameU="msvThemeColors" v:val="VT0(36):26"/>
				<v:ud v:nameU="msvThemeEffects" v:val="VT0(16):26"/>
			</v:userDefs>
			<v:textBlock v:margins="rect(4,4,4,4)" v:tabSpace="42.5197"/>
			<v:textRect cx="17.0079" cy="173.436" width="34.02" height="42.5197"/>
			<rect x="0" y="152.176" width="34.0157" height="42.5197" class="st8"/>
			<text x="4.5" y="170.44" class="st9" v:langID="1031"><v:paragraph v:horizAlign="1"/><v:tabList/>Front-<tspan x="9.31"
						dy="1.2em" class="st7">End</tspan></text>		</g>
		<g id="shape6-41" v:mID="6" v:groupContext="shape" transform="translate(0.25,-24.3672)">
			<title>Sheet.6</title>
			<desc>Back-End or Cloud</desc>
			<v:userDefs>
				<v:ud v:nameU="msvThemeColors" v:val="VT0(36):26"/>
				<v:ud v:nameU="msvThemeEffects" v:val="VT0(16):26"/>
			</v:userDefs>
			<v:textBlock v:margins="rect(4,4,4,4)" v:tabSpace="42.5197"/>
			<v:textRect cx="21.2598" cy="173.436" width="42.52" height="42.5197"/>
			<rect x="0" y="152.176" width="42.5197" height="42.5197" class="st8"/>
			<text x="10.23" y="164.44" class="st9" v:langID="1031"><v:paragraph v:horizAlign="1"/><v:tabList/>Back-<tspan x="8.05"
						dy="1.2em" class="st7">End or </tspan><tspan x="9.56" dy="1.2em" class="st7">Cloud</tspan></text>		</g>
		<g id="shape7-46" v:mID="7" v:groupContext="shape" transform="translate(51.2736,-44.2097)">
			<title>Rectangle.7</title>
			<desc>User Interface (“View“)</desc>
			<v:userDefs>
				<v:ud v:nameU="visVersion" v:val="VT0(14):26"/>
				<v:ud v:nameU="msvThemeColors" v:val="VT0(36):26"/>
				<v:ud v:nameU="msvThemeEffects" v:val="VT0(16):26"/>
			</v:userDefs>
			<v:textBlock v:margins="rect(4,4,4,4)" v:tabSpace="42.5197"/>
			<v:textRect cx="46.7717" cy="184.775" width="93.55" height="19.8425"/>
			<g id="shadow7-47" v:groupContext="shadow" v:shadowOffsetX="1.44" v:shadowOffsetY="-1.44" v:shadowType="1"
					transform="matrix(1,0,0,1,1.44,1.44)" class="st1">
				<rect x="0" y="174.853" width="93.5433" height="19.8425" class="st2"/>
			</g>
			<rect x="0" y="174.853" width="93.5433" height="19.8425" class="st10"/>
			<text x="8.99" y="187.17" class="st11" v:langID="1033"><v:paragraph v:horizAlign="1"/><v:tabList/>User <tspan
						class="st7" v:langID="1031">I</tspan>nterface (<tspan class="st7" v:langID="1031">“</tspan><tspan
						class="st7" v:langID="1031">V</tspan>iew“)</text>		</g>
		<g id="shape8-55" v:mID="8" v:groupContext="shape" transform="translate(51.2736,-15.8632)">
			<title>Rectangle.8</title>
			<desc>Model Classes</desc>
			<v:userDefs>
				<v:ud v:nameU="visVersion" v:val="VT0(14):26"/>
				<v:ud v:nameU="msvThemeColors" v:val="VT0(36):26"/>
				<v:ud v:nameU="msvThemeEffects" v:val="VT0(16):26"/>
			</v:userDefs>
			<v:textBlock v:margins="rect(4,4,4,4)" v:tabSpace="42.5197"/>
			<v:textRect cx="22.6772" cy="183.357" width="45.36" height="22.6772"/>
			<g id="shadow8-56" v:groupContext="shadow" v:shadowOffsetX="1.44" v:shadowOffsetY="-1.44" v:shadowType="1"
					transform="matrix(1,0,0,1,1.44,1.44)" class="st1">
				<rect x="0" y="172.019" width="45.3543" height="22.6772" class="st2"/>
			</g>
			<rect x="0" y="172.019" width="45.3543" height="22.6772" class="st10"/>
			<text x="12.14" y="180.96" class="st11" v:langID="1031"><v:paragraph v:horizAlign="1"/><v:tabList/>Model <tspan
						x="11.03" dy="1.2em" class="st7">Classes</tspan></text>		</g>
		<g id="shape9-62" v:mID="9" v:groupContext="shape" transform="translate(102.297,-15.8632)">
			<title>Rectangle.9</title>
			<desc>Storage Manager</desc>
			<v:userDefs>
				<v:ud v:nameU="visVersion" v:val="VT0(14):26"/>
				<v:ud v:nameU="msvThemeColors" v:val="VT0(36):26"/>
				<v:ud v:nameU="msvThemeEffects" v:val="VT0(16):26"/>
			</v:userDefs>
			<v:textBlock v:margins="rect(4,4,4,4)" v:tabSpace="42.5197"/>
			<v:textRect cx="22.6772" cy="183.357" width="45.36" height="22.6772"/>
			<g id="shadow9-63" v:groupContext="shadow" v:shadowOffsetX="1.44" v:shadowOffsetY="-1.44" v:shadowType="1"
					transform="matrix(1,0,0,1,1.44,1.44)" class="st1">
				<rect x="0" y="172.019" width="45.3543" height="22.6772" class="st2"/>
			</g>
			<rect x="0" y="172.019" width="45.3543" height="22.6772" class="st10"/>
			<text x="10.21" y="180.96" class="st11" v:langID="1031"><v:paragraph v:horizAlign="1"/><v:tabList/>Storage <tspan
						x="8.06" dy="1.2em" class="st7">Manager</tspan></text>		</g>
		<g id="shape10-69" v:mID="10" v:groupContext="shape" transform="translate(-83.8947,99.4626) rotate(-90) scale(-1,1)">
			<title>45 degree single</title>
			<v:userDefs>
				<v:ud v:nameU="visVersion" v:val="VT0(14):26"/>
				<v:ud v:nameU="msvThemeColors" v:val="VT0(36):26"/>
				<v:ud v:nameU="msvThemeEffects" v:val="VT0(16):26"/>
			</v:userDefs>
			<g id="shadow10-70" v:groupContext="shadow" v:shadowOffsetX="1.44" v:shadowOffsetY="-1.44" v:shadowType="1"
					transform="matrix(1,0,0,1,1.44,1.44)" class="st1">
				<path d="M0 189.03 L5.67 183.36 L5.67 187.1 L22.68 187.1 L22.68 190.95 L5.67 190.95 L5.67 194.7 L0 189.03 Z"
						class="st2"/>
			</g>
			<path d="M0 189.03 L5.67 183.36 L5.67 187.1 L22.68 187.1 L22.68 190.95 L5.67 190.95 L5.67 194.7 L0 189.03 Z"
					class="st3"/>
		</g>
		<g id="shape11-74" v:mID="11" v:groupContext="shape" transform="translate(54.1083,-73.9735)">
			<title>Sheet.11</title>
			<desc>Load app from server</desc>
			<v:userDefs>
				<v:ud v:nameU="msvThemeColors" v:val="VT0(36):26"/>
				<v:ud v:nameU="msvThemeEffects" v:val="VT0(16):26"/>
			</v:userDefs>
			<v:textBlock v:margins="rect(4,4,4,4)" v:tabSpace="42.5197"/>
			<v:textRect cx="23.3858" cy="187.609" width="46.78" height="14.1732"/>
			<rect x="0" y="180.523" width="46.7717" height="14.1732" class="st8"/>
			<text x="8.55" y="185.21" class="st6" v:langID="1031"><v:paragraph v:horizAlign="1"/><v:tabList/>Load app <tspan
						x="4.42" dy="1.2em" class="st7">from server</tspan></text>		</g>
		<g id="shape12-78" v:mID="12" v:groupContext="shape" transform="translate(59.7776,-166.099)">
			<title>Sheet.12</title>
			<desc>Front-End App with Local Storage</desc>
			<v:userDefs>
				<v:ud v:nameU="msvThemeColors" v:val="VT0(36):26"/>
				<v:ud v:nameU="msvThemeEffects" v:val="VT0(16):26"/>
			</v:userDefs>
			<v:textBlock v:margins="rect(4,4,4,4)" v:tabSpace="42.5197"/>
			<v:textRect cx="42.5197" cy="180.523" width="85.04" height="28.3465"/>
			<rect x="0" y="166.349" width="85.0394" height="28.3465" class="st8"/>
			<text x="12.48" y="177.52" class="st12" v:langID="1031"><v:paragraph v:horizAlign="1"/><v:tabList/>Front-End App <tspan
						x="4.38" dy="1.2em" class="st7">with Local Storage</tspan></text>		</g>
		<g id="shape13-82" v:mID="13" v:groupContext="shape" transform="translate(175.998,-132.084)">
			<title>Rectangle.13</title>
			<desc>User Interface (“View“)</desc>
			<v:userDefs>
				<v:ud v:nameU="visVersion" v:val="VT0(14):26"/>
				<v:ud v:nameU="msvThemeColors" v:val="VT0(36):26"/>
				<v:ud v:nameU="msvThemeEffects" v:val="VT0(16):26"/>
			</v:userDefs>
			<v:textBlock v:margins="rect(4,4,4,4)" v:tabSpace="42.5197"/>
			<v:textRect cx="45.3543" cy="183.357" width="90.71" height="22.6772"/>
			<g id="shadow13-83" v:groupContext="shadow" v:shadowOffsetX="1.44" v:shadowOffsetY="-1.44" v:shadowType="1"
					transform="matrix(1,0,0,1,1.44,1.44)" class="st1">
				<rect x="0" y="172.019" width="90.7087" height="22.6772" class="st2"/>
			</g>
			<rect x="0" y="172.019" width="90.7087" height="22.6772" class="st3"/>
			<text x="7.57" y="185.76" class="st6" v:langID="1033"><v:paragraph v:horizAlign="1"/><v:tabList/>User <tspan
						class="st7" v:langID="1031">I</tspan>nterface (<tspan class="st7" v:langID="1031">“</tspan><tspan
						class="st7" v:langID="1031">V</tspan>iew“)</text>		</g>
		<g id="shape15-91" v:mID="15" v:groupContext="shape" transform="translate(175.998,-38.5404)">
			<title>Rectangle.15</title>
			<desc>Data Store</desc>
			<v:userDefs>
				<v:ud v:nameU="visVersion" v:val="VT0(14):26"/>
				<v:ud v:nameU="msvThemeColors" v:val="VT0(36):26"/>
				<v:ud v:nameU="msvThemeEffects" v:val="VT0(16):26"/>
			</v:userDefs>
			<v:textBlock v:margins="rect(4,4,4,4)" v:tabSpace="42.5197"/>
			<v:textRect cx="44.2913" cy="184.775" width="88.59" height="19.8425"/>
			<g id="shadow15-92" v:groupContext="shadow" v:shadowOffsetX="1.44" v:shadowOffsetY="-1.44" v:shadowType="1"
					transform="matrix(1,0,0,1,1.44,1.44)" class="st1">
				<rect x="0" y="174.853" width="88.5827" height="19.8425" class="st2"/>
			</g>
			<rect x="0" y="174.853" width="88.5827" height="19.8425" class="st13"/>
			<text x="27.08" y="187.17" class="st6" v:langID="1031"><v:paragraph v:horizAlign="1"/><v:tabList/>Data Store</text>		</g>
		<g id="shape16-98" v:mID="16" v:groupContext="shape" transform="translate(171.037,-166.099)">
			<title>Sheet.16</title>
			<desc>Front-End App with Cloud Storage</desc>
			<v:userDefs>
				<v:ud v:nameU="msvThemeColors" v:val="VT0(36):26"/>
				<v:ud v:nameU="msvThemeEffects" v:val="VT0(16):26"/>
			</v:userDefs>
			<v:textBlock v:margins="rect(4,4,4,4)" v:tabSpace="42.5197"/>
			<v:textRect cx="43.937" cy="180.523" width="87.88" height="28.3465"/>
			<rect x="0" y="166.349" width="87.874" height="28.3465" class="st8"/>
			<text x="13.9" y="177.52" class="st12" v:langID="1031"><v:paragraph v:horizAlign="1"/><v:tabList/>Front-End App <tspan
						x="4.46" dy="1.2em" class="st7">with Cloud Storage</tspan></text>		</g>
		<g id="shape17-102" v:mID="17" v:groupContext="shape" transform="translate(286.549,-132.084)">
			<title>Rectangle.17</title>
			<desc>User Interface (“View“)</desc>
			<v:userDefs>
				<v:ud v:nameU="visVersion" v:val="VT0(14):26"/>
				<v:ud v:nameU="msvThemeColors" v:val="VT0(36):26"/>
				<v:ud v:nameU="msvThemeEffects" v:val="VT0(16):26"/>
			</v:userDefs>
			<v:textBlock v:margins="rect(4,4,4,4)" v:tabSpace="42.5197"/>
			<v:textRect cx="46.7717" cy="183.357" width="93.55" height="22.6772"/>
			<g id="shadow17-103" v:groupContext="shadow" v:shadowOffsetX="1.44" v:shadowOffsetY="-1.44" v:shadowType="1"
					transform="matrix(1,0,0,1,1.44,1.44)" class="st1">
				<rect x="0" y="172.019" width="93.5433" height="22.6772" class="st2"/>
			</g>
			<rect x="0" y="172.019" width="93.5433" height="22.6772" class="st3"/>
			<text x="8.99" y="185.76" class="st6" v:langID="1033"><v:paragraph v:horizAlign="1"/><v:tabList/>User <tspan
						class="st7" v:langID="1031">I</tspan>nterface (<tspan class="st7" v:langID="1031">“</tspan><tspan
						class="st7" v:langID="1031">V</tspan>iew“)</text>		</g>
		<g id="shape20-111" v:mID="20" v:groupContext="shape" transform="translate(286.549,-166.099)">
			<title>Sheet.20</title>
			<desc>Distributed App</desc>
			<v:userDefs>
				<v:ud v:nameU="msvThemeColors" v:val="VT0(36):26"/>
				<v:ud v:nameU="msvThemeEffects" v:val="VT0(16):26"/>
			</v:userDefs>
			<v:textBlock v:margins="rect(4,4,4,4)" v:tabSpace="42.5197"/>
			<v:textRect cx="43.937" cy="180.523" width="87.88" height="28.3465"/>
			<rect x="0" y="166.349" width="87.874" height="28.3465" class="st8"/>
			<text x="11" y="183.52" class="st12" v:langID="1031"><v:paragraph v:horizAlign="1"/><v:tabList/>Distributed App</text>		</g>
		<g id="shape22-114" v:mID="22" v:groupContext="shape" transform="translate(289.384,-49.879)">
			<title>Rectangle.22</title>
			<desc>Routing/“Controller“</desc>
			<v:userDefs>
				<v:ud v:nameU="visVersion" v:val="VT0(14):26"/>
				<v:ud v:nameU="msvThemeColors" v:val="VT0(36):26"/>
				<v:ud v:nameU="msvThemeEffects" v:val="VT0(16):26"/>
			</v:userDefs>
			<v:textBlock v:margins="rect(4,4,4,4)" v:tabSpace="42.5197"/>
			<v:textRect cx="45.3543" cy="184.775" width="90.71" height="19.8425"/>
			<g id="shadow22-115" v:groupContext="shadow" v:shadowOffsetX="1.44" v:shadowOffsetY="-1.44" v:shadowType="1"
					transform="matrix(1,0,0,1,1.44,1.44)" class="st1">
				<rect x="0" y="174.853" width="90.7087" height="19.8425" class="st2"/>
			</g>
			<rect x="0" y="174.853" width="90.7087" height="19.8425" class="st3"/>
			<text x="11.43" y="187.17" class="st6" v:langID="1031"><v:paragraph v:horizAlign="1"/><v:tabList/>Routing/“Controller“</text>		</g>
		<g id="shape23-120" v:mID="23" v:groupContext="shape" transform="translate(339.513,40.6437) rotate(90)">
			<title>Rectangle.23</title>
			<desc>Data Store</desc>
			<v:userDefs>
				<v:ud v:nameU="visVersion" v:val="VT0(14):26"/>
				<v:ud v:nameU="msvThemeColors" v:val="VT0(36):26"/>
				<v:ud v:nameU="msvThemeEffects" v:val="VT0(16):26"/>
			</v:userDefs>
			<v:textBlock v:margins="rect(4,4,4,4)" v:tabSpace="42.5197"/>
			<v:textRect cx="24.8031" cy="187.609" width="49.61" height="14.1732"/>
			<g id="shadow23-121" v:groupContext="shadow" v:shadowOffsetX="1.44" v:shadowOffsetY="-1.44" v:shadowType="1"
					transform="matrix(1,0,0,1,1.44,-1.44)" class="st1">
				<rect x="0" y="180.523" width="49.6063" height="14.1732" class="st2"/>
			</g>
			<rect x="0" y="180.523" width="49.6063" height="14.1732" class="st13"/>
			<text x="7.59" y="190.01" class="st6" v:langID="1031"><v:paragraph v:horizAlign="1"/><v:tabList/>Data Store</text>		</g>
		<g id="shape14-126" v:mID="14" v:groupContext="shape" transform="translate(175.998,-103.737)">
			<title>Rectangle.14</title>
			<desc>Model Classes</desc>
			<v:userDefs>
				<v:ud v:nameU="visVersion" v:val="VT0(14):26"/>
				<v:ud v:nameU="msvThemeColors" v:val="VT0(36):26"/>
				<v:ud v:nameU="msvThemeEffects" v:val="VT0(16):26"/>
			</v:userDefs>
			<v:textBlock v:margins="rect(4,4,4,4)" v:tabSpace="42.5197"/>
			<v:textRect cx="21.2598" cy="183.357" width="42.52" height="22.6772"/>
			<g id="shadow14-127" v:groupContext="shadow" v:shadowOffsetX="1.44" v:shadowOffsetY="-1.44" v:shadowType="1"
					transform="matrix(1,0,0,1,1.44,1.44)" class="st1">
				<rect x="0" y="172.019" width="42.5197" height="22.6772" class="st2"/>
			</g>
			<rect x="0" y="172.019" width="42.5197" height="22.6772" class="st3"/>
			<text x="10.72" y="180.96" class="st6" v:langID="1031"><v:paragraph v:horizAlign="1"/><v:tabList/>Model <tspan x="9.61"
						dy="1.2em" class="st7">Classes</tspan></text>		</g>
		<g id="shape18-133" v:mID="18" v:groupContext="shape" transform="translate(224.187,-103.737)">
			<title>Rectangle.18</title>
			<desc>Storage Manager</desc>
			<v:userDefs>
				<v:ud v:nameU="visVersion" v:val="VT0(14):26"/>
				<v:ud v:nameU="msvThemeColors" v:val="VT0(36):26"/>
				<v:ud v:nameU="msvThemeEffects" v:val="VT0(16):26"/>
			</v:userDefs>
			<v:textBlock v:margins="rect(4,4,4,4)" v:tabSpace="42.5197"/>
			<v:textRect cx="21.2598" cy="183.357" width="42.52" height="22.6772"/>
			<g id="shadow18-134" v:groupContext="shadow" v:shadowOffsetX="1.44" v:shadowOffsetY="-1.44" v:shadowType="1"
					transform="matrix(1,0,0,1,1.44,1.44)" class="st1">
				<rect x="0" y="172.019" width="42.5197" height="22.6772" class="st2"/>
			</g>
			<rect x="0" y="172.019" width="42.5197" height="22.6772" class="st3"/>
			<text x="8.79" y="180.96" class="st6" v:langID="1031"><v:paragraph v:horizAlign="1"/><v:tabList/>Storage <tspan
						x="6.64" dy="1.2em" class="st7">Manager</tspan></text>		</g>
		<g id="shape19-140" v:mID="19" v:groupContext="shape" transform="translate(289.384,-1.69)">
			<title>Rectangle.19</title>
			<desc>Data Store</desc>
			<v:userDefs>
				<v:ud v:nameU="visVersion" v:val="VT0(14):26"/>
				<v:ud v:nameU="msvThemeColors" v:val="VT0(36):26"/>
				<v:ud v:nameU="msvThemeEffects" v:val="VT0(16):26"/>
			</v:userDefs>
			<v:textBlock v:margins="rect(4,4,4,4)" v:tabSpace="42.5197"/>
			<v:textRect cx="45.3543" cy="186.192" width="90.71" height="17.0079"/>
			<g id="shadow19-141" v:groupContext="shadow" v:shadowOffsetX="1.44" v:shadowOffsetY="-1.44" v:shadowType="1"
					transform="matrix(1,0,0,1,1.44,1.44)" class="st1">
				<rect x="0" y="177.688" width="90.7087" height="17.0079" class="st2"/>
			</g>
			<rect x="0" y="177.688" width="90.7087" height="17.0079" class="st13"/>
			<text x="28.15" y="188.59" class="st6" v:langID="1031"><v:paragraph v:horizAlign="1"/><v:tabList/>Data Store</text>		</g>
		<g id="shape24-146" v:mID="24" v:groupContext="shape" transform="translate(287.967,-103.737)">
			<title>Rectangle.24</title>
			<desc>Model Classes</desc>
			<v:userDefs>
				<v:ud v:nameU="visVersion" v:val="VT0(14):26"/>
				<v:ud v:nameU="msvThemeColors" v:val="VT0(36):26"/>
				<v:ud v:nameU="msvThemeEffects" v:val="VT0(16):26"/>
			</v:userDefs>
			<v:textBlock v:margins="rect(4,4,4,4)" v:tabSpace="42.5197"/>
			<v:textRect cx="21.2598" cy="183.357" width="42.52" height="22.6772"/>
			<g id="shadow24-147" v:groupContext="shadow" v:shadowOffsetX="1.44" v:shadowOffsetY="-1.44" v:shadowType="1"
					transform="matrix(1,0,0,1,1.44,1.44)" class="st1">
				<rect x="0" y="172.019" width="42.5197" height="22.6772" class="st2"/>
			</g>
			<rect x="0" y="172.019" width="42.5197" height="22.6772" class="st3"/>
			<text x="10.72" y="180.96" class="st6" v:langID="1031"><v:paragraph v:horizAlign="1"/><v:tabList/>Model <tspan x="9.61"
						dy="1.2em" class="st7">Classes</tspan></text>		</g>
		<g id="shape25-153" v:mID="25" v:groupContext="shape" transform="translate(336.156,-103.737)">
			<title>Rectangle.25</title>
			<desc>Storage Manager</desc>
			<v:userDefs>
				<v:ud v:nameU="visVersion" v:val="VT0(14):26"/>
				<v:ud v:nameU="msvThemeColors" v:val="VT0(36):26"/>
				<v:ud v:nameU="msvThemeEffects" v:val="VT0(16):26"/>
			</v:userDefs>
			<v:textBlock v:margins="rect(4,4,4,4)" v:tabSpace="42.5197"/>
			<v:textRect cx="21.2598" cy="183.357" width="42.52" height="22.6772"/>
			<g id="shadow25-154" v:groupContext="shadow" v:shadowOffsetX="1.44" v:shadowOffsetY="-1.44" v:shadowType="1"
					transform="matrix(1,0,0,1,1.44,1.44)" class="st1">
				<rect x="0" y="172.019" width="42.5197" height="22.6772" class="st2"/>
			</g>
			<rect x="0" y="172.019" width="42.5197" height="22.6772" class="st3"/>
			<text x="8.79" y="180.96" class="st6" v:langID="1031"><v:paragraph v:horizAlign="1"/><v:tabList/>Storage <tspan
						x="6.64" dy="1.2em" class="st7">Manager</tspan></text>		</g>
		<g id="shape21-160" v:mID="21" v:groupContext="shape" transform="translate(289.1,-23.8002)">
			<title>Rectangle.21</title>
			<desc>Model Classes</desc>
			<v:userDefs>
				<v:ud v:nameU="visVersion" v:val="VT0(14):26"/>
				<v:ud v:nameU="msvThemeColors" v:val="VT0(36):26"/>
				<v:ud v:nameU="msvThemeEffects" v:val="VT0(16):26"/>
			</v:userDefs>
			<v:textBlock v:margins="rect(4,4,4,4)" v:tabSpace="42.5197"/>
			<v:textRect cx="22.3937" cy="183.357" width="44.79" height="22.6772"/>
			<g id="shadow21-161" v:groupContext="shadow" v:shadowOffsetX="1.44" v:shadowOffsetY="-1.44" v:shadowType="1"
					transform="matrix(1,0,0,1,1.44,1.44)" class="st1">
				<rect x="0" y="172.019" width="44.7874" height="22.6772" class="st2"/>
			</g>
			<rect x="0" y="172.019" width="44.7874" height="22.6772" class="st3"/>
			<text x="11.85" y="180.96" class="st6" v:langID="1031"><v:paragraph v:horizAlign="1"/><v:tabList/>Model <tspan
						x="10.74" dy="1.2em" class="st7">Classes</tspan></text>		</g>
		<g id="shape26-167" v:mID="26" v:groupContext="shape" transform="translate(336.439,-23.8002)">
			<title>Rectangle.26</title>
			<desc>Storage Manager</desc>
			<v:userDefs>
				<v:ud v:nameU="visVersion" v:val="VT0(14):26"/>
				<v:ud v:nameU="msvThemeColors" v:val="VT0(36):26"/>
				<v:ud v:nameU="msvThemeEffects" v:val="VT0(16):26"/>
			</v:userDefs>
			<v:textBlock v:margins="rect(4,4,4,4)" v:tabSpace="42.5197"/>
			<v:textRect cx="21.685" cy="183.357" width="43.38" height="22.6772"/>
			<g id="shadow26-168" v:groupContext="shadow" v:shadowOffsetX="1.44" v:shadowOffsetY="-1.44" v:shadowType="1"
					transform="matrix(1,0,0,1,1.44,1.44)" class="st1">
				<rect x="0" y="172.019" width="43.3701" height="22.6772" class="st2"/>
			</g>
			<rect x="0" y="172.019" width="43.3701" height="22.6772" class="st3"/>
			<text x="9.21" y="180.96" class="st6" v:langID="1031"><v:paragraph v:horizAlign="1"/><v:tabList/>Storage <tspan
						x="7.06" dy="1.2em" class="st7">Manager</tspan></text>		</g>
		<g id="shape28-174" v:mID="28" v:groupContext="shape" transform="translate(387.702,99.4626) rotate(90)">
			<title>45 degree double</title>
			<v:userDefs>
				<v:ud v:nameU="visVersion" v:val="VT0(14):26"/>
				<v:ud v:nameU="msvThemeColors" v:val="VT0(36):26"/>
				<v:ud v:nameU="msvThemeEffects" v:val="VT0(16):26"/>
			</v:userDefs>
			<g id="shadow28-175" v:groupContext="shadow" v:shadowOffsetX="1.44" v:shadowOffsetY="-1.44" v:shadowType="1"
					transform="matrix(1,0,0,1,1.44,-1.44)" class="st1">
				<path d="M0 189.03 L5.67 183.36 L5.67 187.1 L17.01 187.1 L17.01 183.36 L22.68 189.03 L17.01 194.7 L17.01 190.95 L5.67
							 190.95 L5.67 194.7 L0 189.03 Z" class="st2"/>
			</g>
			<path d="M0 189.03 L5.67 183.36 L5.67 187.1 L17.01 187.1 L17.01 183.36 L22.68 189.03 L17.01 194.7 L17.01 190.95 L5.67
						 190.95 L5.67 194.7 L0 189.03 Z" class="st3"/>
		</g>
		<g id="shape29-179" v:mID="29" v:groupContext="shape" transform="translate(202.927,-81.0601)">
			<title>Sheet.29</title>
			<desc>XHR Read/Write</desc>
			<v:userDefs>
				<v:ud v:nameU="msvThemeColors" v:val="VT0(36):26"/>
				<v:ud v:nameU="msvThemeEffects" v:val="VT0(16):26"/>
			</v:userDefs>
			<v:textBlock v:margins="rect(4,4,4,4)" v:tabSpace="42.5197"/>
			<v:textRect cx="31.1811" cy="189.027" width="62.37" height="11.3386"/>
			<rect x="0" y="183.357" width="62.3622" height="11.3386" class="st8"/>
			<text x="4.61" y="191.43" class="st6" v:langID="1031"><v:paragraph v:horizAlign="1"/><v:tabList/>XHR Read/Write</text>		</g>
		<g id="shape30-182" v:mID="30" v:groupContext="shape" transform="translate(497.544,99.4626) rotate(90)">
			<title>45 degree double.30</title>
			<v:userDefs>
				<v:ud v:nameU="visVersion" v:val="VT0(14):26"/>
				<v:ud v:nameU="msvThemeColors" v:val="VT0(36):26"/>
				<v:ud v:nameU="msvThemeEffects" v:val="VT0(16):26"/>
			</v:userDefs>
			<g id="shadow30-183" v:groupContext="shadow" v:shadowOffsetX="1.44" v:shadowOffsetY="-1.44" v:shadowType="1"
					transform="matrix(1,0,0,1,1.44,-1.44)" class="st1">
				<path d="M0 189.03 L5.67 183.36 L5.67 187.1 L17.01 187.1 L17.01 183.36 L22.68 189.03 L17.01 194.7 L17.01 190.95 L5.67
							 190.95 L5.67 194.7 L0 189.03 Z" class="st2"/>
			</g>
			<path d="M0 189.03 L5.67 183.36 L5.67 187.1 L17.01 187.1 L17.01 183.36 L22.68 189.03 L17.01 194.7 L17.01 190.95 L5.67
						 190.95 L5.67 194.7 L0 189.03 Z" class="st3"/>
		</g>
		<g id="shape31-187" v:mID="31" v:groupContext="shape" transform="translate(312.77,-81.0601)">
			<title>Sheet.31</title>
			<desc>XHR Read/Write</desc>
			<v:userDefs>
				<v:ud v:nameU="msvThemeColors" v:val="VT0(36):26"/>
				<v:ud v:nameU="msvThemeEffects" v:val="VT0(16):26"/>
			</v:userDefs>
			<v:textBlock v:margins="rect(4,4,4,4)" v:tabSpace="42.5197"/>
			<v:textRect cx="31.1811" cy="189.027" width="62.37" height="11.3386"/>
			<rect x="0" y="183.357" width="62.3622" height="11.3386" class="st8"/>
			<text x="4.61" y="191.43" class="st6" v:langID="1031"><v:paragraph v:horizAlign="1"/><v:tabList/>XHR Read/Write</text>		</g>
	</g>
</svg>
